module github.com/snehal1112/stock

go 1.15

require (
	github.com/aws/aws-sdk-go v1.37.10 // indirect
	github.com/fsnotify/fsnotify v1.4.9 // indirect
	github.com/golang/snappy v0.0.2 // indirect
	github.com/google/go-cmp v0.5.4 // indirect
	github.com/google/uuid v1.2.0 // indirect
	github.com/gopherjs/gopherjs v0.0.0-20210202160940-bed99a852dfe // indirect
	github.com/gorilla/mux v1.8.0
	github.com/klauspost/compress v1.11.7 // indirect
	github.com/kr/text v0.2.0 // indirect
	github.com/magiconair/properties v1.8.4 // indirect
	github.com/mitchellh/go-homedir v1.1.0
	github.com/mitchellh/mapstructure v1.4.1 // indirect
	github.com/neelance/astrewrite v0.0.0-20160511093645-99348263ae86 // indirect
	github.com/neelance/sourcemap v0.0.0-20200213170602-2833bce08e4c // indirect
	github.com/nicksnyder/go-i18n/v2 v2.1.2
	github.com/pborman/uuid v1.2.1
	github.com/pelletier/go-toml v1.8.1 // indirect
	github.com/rs/cors v1.7.0
	github.com/shurcooL/httpfs v0.0.0-20190707220628-8d4bc4ba7749 // indirect
	github.com/sirupsen/logrus v1.7.0
	github.com/smartystreets/assertions v1.2.0 // indirect
	github.com/snehal1112/transport v1.0.5
	github.com/spf13/afero v1.5.1 // indirect
	github.com/spf13/cast v1.3.1
	github.com/spf13/cobra v1.1.3
	github.com/spf13/jwalterweatherman v1.1.0 // indirect
	github.com/spf13/viper v1.7.1
	github.com/stretchr/testify v1.7.0 // indirect
	github.com/tidwall/pretty v1.0.5 // indirect
	go.mongodb.org/mongo-driver v1.4.6
	golang.org/x/crypto v0.0.0-20201221181555-eec23a3978ad // indirect
	golang.org/x/net v0.0.0-20210119194325-5f4716e94777 // indirect
	golang.org/x/sync v0.0.0-20201207232520-09787c993a3a // indirect
	golang.org/x/sys v0.0.0-20210124154548-22da62e12c0c // indirect
	golang.org/x/text v0.3.5
	golang.org/x/xerrors v0.0.0-20200804184101-5ec99f83aff1 // indirect
	gopkg.in/check.v1 v1.0.0-20201130134442-10cb98267c6c // indirect
	gopkg.in/ini.v1 v1.62.0 // indirect
	gopkg.in/yaml.v2 v2.4.0 // indirect
	gopkg.in/yaml.v3 v3.0.0-20210107192922-496545a6307b // indirect
)
